Wind Direction and Speed Graphs
…
# order seasons and compass directions
heatmap_df$season <- factor(
  heatmap_df$season,
  levels = c("Spring", "Summer", "Fall", "Winter")
)

heatmap_df$direction_sector <- factor(
  heatmap_df$direction_sector,
  levels = c("N", "NE", "E", "SE", "S", "SW", "W", "NW")
)

heatmap_df

## # A tibble: 64 × 5
##    farm      season direction_sector     n   prop
##    <chr>     <fct>  <fct>            <dbl>  <dbl>
##  1 WindFarmA Fall   E                99197 0.347 
##  2 WindFarmA Fall   N                14207 0.0497
##  3 WindFarmA Fall   NE               10326 0.0361
##  4 WindFarmA Fall   NW               28255 0.0989
##  5 WindFarmA Fall   S                23580 0.0825
##  6 WindFarmA Fall   SE               47186 0.165 
##  7 WindFarmA Fall   SW               27171 0.0951
##  8 WindFarmA Fall   W                35865 0.125 
##  9 WindFarmA Spring E                85134 0.293 
## 10 WindFarmA Spring N                16366 0.0563
## # ℹ 54 more rows
…
